Hands on Exercise 6 – ISSS608
…
attacks <- attacks %>%
  group_by(tz) %>%
  do(hr_wkday(.$timestamp, 
                   .$source_country, 
                   .$tz)) %>% 
  ungroup() %>% 
  mutate(wkday = factor(
    wkday, levels = wkday_levels),
    hour  = factor(
      hour, levels = 0:23))

attacks

# A tibble: 199,999 × 4
   tz           source_country wkday    hour 
   <chr>        <chr>          <fct>    <fct>
 1 Africa/Cairo BG             Saturday 20   
 2 Africa/Cairo TW             Sunday   6    
 3 Africa/Cairo TW             Sunday   8    
 4 Africa/Cairo CN             Sunday   11   
 5 Africa/Cairo US             Sunday   15   
 6 Africa/Cairo CA             Monday   11   
 7 Africa/Cairo GB             Monday   15   
 8 Africa/Cairo CN             Monday   16   
 9 Africa/Cairo CN             Monday   17   
10 Africa/Cairo CN             Thursday 21   
# ℹ 199,989 more rows
…
