Take Home Exercise 3 – ISSS608
…
edges <- as_tibble(data$links)
edge

function (...) 
{
    structure(list(...), class = "igraph.edge")
}
<bytecode: 0x000001352a0bb2d8>
<environment: namespace:igraph>

nodes <- as_tibble(data$nodes)
nodes

# A tibble: 17,412 × 10
   `Node Type` name         single release_date genre notable    id written_date
   <chr>       <chr>        <lgl>  <chr>        <chr> <lgl>   <int> <chr>       
 1 Song        Breaking Th… TRUE   2017         Ocea… TRUE        0 <NA>        
 2 Person      Carlos Duffy NA     <NA>         <NA>  NA          1 <NA>        
 3 Person      Min Qin      NA     <NA>         <NA>  NA          2 <NA>        
 4 Person      Xiuying Xie  NA     <NA>         <NA>  NA          3 <NA>        
 5 RecordLabel Nautical Mi… NA     <NA>         <NA>  NA          4 <NA>        
 6 Song        Unshackled … FALSE  2026         Lo-F… TRUE        5 <NA>        
 7 Person      Luke Payne   NA     <NA>         <NA>  NA          6 <NA>        
 8 Person      Xiulan Zeng  NA     <NA>         <NA>  NA          7 <NA>        
 9 Person      David Frank… NA     <NA>         <NA>  NA          8 <NA>        
10 RecordLabel Colline-Cas… NA     <NA>         <NA>  NA          9 <NA>        
# ℹ 17,402 more rows
# ℹ 2 more variables: stage_name <chr>, notoriety_date <chr>
…
